\relax 
\providecommand\hyper@newdestlabel[2]{}
\providecommand\HyperFirstAtBeginDocument{\AtBeginDocument}
\HyperFirstAtBeginDocument{\ifx\hyper@anchor\@undefined
\global\let\oldcontentsline\contentsline
\gdef\contentsline#1#2#3#4{\oldcontentsline{#1}{#2}{#3}}
\global\let\oldnewlabel\newlabel
\gdef\newlabel#1#2{\newlabelxx{#1}#2}
\gdef\newlabelxx#1#2#3#4#5#6{\oldnewlabel{#1}{{#2}{#3}}}
\AtEndDocument{\ifx\hyper@anchor\@undefined
\let\contentsline\oldcontentsline
\let\newlabel\oldnewlabel
\fi}
\fi}
\global\let\hyper@last\relax 
\gdef\HyperFirstAtBeginDocument#1{#1}
\providecommand\HyField@AuxAddToFields[1]{}
\providecommand\HyField@AuxAddToCoFields[2]{}
\@writefile{lot}{\contentsline {table}{\numberline {1}{\ignorespaces Times}}{1}{table.0.1}}
\@writefile{loa}{\contentsline {algorithm}{\numberline {1}{\ignorespaces \textbf  {BruteForceMailProblem}(T$\left [0 \dots  n-1, 0 \ldots  n-1\right ]$)}}{2}{algorithm.1}}
\@writefile{loa}{\contentsline {algorithm}{\numberline {2}{\ignorespaces \textbf  {GetAllPaths}(StopsLeft$\left [0 \dots  n-1\right ]$, PossiblePaths, CurrentPath)}}{3}{algorithm.2}}
\@writefile{loa}{\contentsline {algorithm}{\numberline {3}{\ignorespaces \textbf  {GetTime}(Path[0...n-1], T[0...n-1, 0...n-1])}}{4}{algorithm.3}}
\@writefile{loa}{\contentsline {algorithm}{\numberline {4}{\ignorespaces \textbf  {GreedyMailProblem}(T$\left [0 \dots  n-1, 0 \ldots  n-1\right ]$)}}{6}{algorithm.4}}
\@writefile{loa}{\contentsline {algorithm}{\numberline {5}{\ignorespaces \textbf  {GetNextBest}(StopsVisited$\left [0 \dots  k-1\right ]$, TimeList$\left [0 \ldots  n-1,0 \ldots  n-1 \right ]$)}}{7}{algorithm.5}}
\@writefile{loa}{\contentsline {algorithm}{\numberline {6}{\ignorespaces \textbf  {SequentialSearch}(Target, List$[0...n-1]$)}}{7}{algorithm.6}}
\@writefile{lot}{\contentsline {table}{\numberline {2}{\ignorespaces Distance}}{8}{table.0.2}}
\@writefile{loa}{\contentsline {algorithm}{\numberline {7}{\ignorespaces \textbf  {isSoultion}(partialSolution)}}{9}{algorithm.7}}
\@writefile{loa}{\contentsline {algorithm}{\numberline {8}{\ignorespaces \textbf  {getNextItems}(partialSolution, T[0 $\ldots  $ n-1,0 $\ldots  $ n-1])}}{10}{algorithm.8}}
\@writefile{loa}{\contentsline {algorithm}{\numberline {9}{\ignorespaces \textbf  {getDistance}(partialSolution, T[0...n-1,0...n-1])}}{11}{algorithm.9}}
\@writefile{loa}{\contentsline {algorithm}{\numberline {10}{\ignorespaces \textbf  {ProcessSolution}(partialSolution, bestSolution)}}{11}{algorithm.10}}
\@writefile{loa}{\contentsline {algorithm}{\numberline {11}{\ignorespaces \textbf  {StateTSPBacktracker}(partialSolution, T[0...n-1, 0...n-1], m, bestSolution)}}{12}{algorithm.11}}
\@writefile{loa}{\contentsline {algorithm}{\numberline {12}{\ignorespaces \textbf  {StateTSPBacktracker}(partialSolution, partialDistance, T[0...n-1, 0...n-1], m, bestSolution)}}{13}{algorithm.12}}
