\relax 
\@writefile{toc}{\contentsline {section}{\numberline {1}System of Linear Equations}{1}}
\@writefile{toc}{\contentsline {paragraph}{Introduction}{1}}
\@writefile{toc}{\contentsline {section}{\numberline {2}Elementary Row Options}{1}}
\@writefile{toc}{\contentsline {paragraph}{Introduction}{1}}
\@writefile{toc}{\contentsline {paragraph}{Elementary Row Operations}{1}}
\@writefile{toc}{\contentsline {paragraph}{Definition}{2}}
\@writefile{toc}{\contentsline {section}{\numberline {3}Using Elementary Row Operations to Solve a System (Gaussian Elimination)}{3}}
\@writefile{toc}{\contentsline {paragraph}{Example 1}{3}}
\@writefile{toc}{\contentsline {paragraph}{Exercise 1: Solve the System}{3}}
\@writefile{toc}{\contentsline {paragraph}{Exercise 2: Solve the System}{3}}
\@writefile{toc}{\contentsline {section}{\numberline {4}Gauss-Jordan Elimination}{4}}
\@writefile{toc}{\contentsline {paragraph}{Introduction}{4}}
\@writefile{toc}{\contentsline {paragraph}{Remark}{4}}
\@writefile{toc}{\contentsline {paragraph}{Example 2 (from Example 1)}{4}}
\@writefile{toc}{\contentsline {paragraph}{Example 3 (A system with an Infinite Number of Solutions)}{4}}
\@writefile{toc}{\contentsline {paragraph}{Exercise 3: Solve the System of Linear Equations}{5}}
\@writefile{toc}{\contentsline {paragraph}{Remark}{5}}
\@writefile{toc}{\contentsline {section}{\numberline {5}Linear Independence}{6}}
\@writefile{toc}{\contentsline {paragraph}{Definition}{6}}
\@writefile{toc}{\contentsline {paragraph}{Example 1}{6}}
