\relax 
\providecommand\hyper@newdestlabel[2]{}
\providecommand\HyperFirstAtBeginDocument{\AtBeginDocument}
\HyperFirstAtBeginDocument{\ifx\hyper@anchor\@undefined
\global\let\oldcontentsline\contentsline
\gdef\contentsline#1#2#3#4{\oldcontentsline{#1}{#2}{#3}}
\global\let\oldnewlabel\newlabel
\gdef\newlabel#1#2{\newlabelxx{#1}#2}
\gdef\newlabelxx#1#2#3#4#5#6{\oldnewlabel{#1}{{#2}{#3}}}
\AtEndDocument{\ifx\hyper@anchor\@undefined
\let\contentsline\oldcontentsline
\let\newlabel\oldnewlabel
\fi}
\fi}
\global\let\hyper@last\relax 
\gdef\HyperFirstAtBeginDocument#1{#1}
\providecommand\HyField@AuxAddToFields[1]{}
\providecommand\HyField@AuxAddToCoFields[2]{}
\select@language{english}
\@writefile{toc}{\select@language{english}}
\@writefile{lof}{\select@language{english}}
\@writefile{lot}{\select@language{english}}
\@writefile{lof}{\contentsline {figure}{\numberline {1}{\ignorespaces The funny corner on Swanston Street}}{1}{figure.0.1}}
\@writefile{lof}{\contentsline {figure}{\numberline {2}{\ignorespaces parallelogram of vectors \textbf  {u} and \textbf  {v}}}{2}{figure.0.2}}
\@writefile{lof}{\contentsline {figure}{\numberline {3}{\ignorespaces triangle $d$ from parallelogram of vectors \textbf  {u} and \textbf  {v}}}{4}{figure.0.3}}
\@writefile{toc}{\contentsline {paragraph}{}{4}{section*.5}}
\@writefile{toc}{\contentsline {paragraph}{}{4}{section*.6}}
\@writefile{toc}{\contentsline {paragraph}{}{4}{section*.7}}
\@writefile{toc}{\contentsline {paragraph}{}{4}{section*.8}}
\@writefile{toc}{\contentsline {paragraph}{}{7}{section*.10}}
\@writefile{toc}{\contentsline {paragraph}{}{7}{section*.11}}
\@writefile{lof}{\contentsline {figure}{\numberline {4}{\ignorespaces Representation of funny corner on Swanston Street}}{7}{figure.0.4}}
\@writefile{toc}{\contentsline {paragraph}{}{7}{section*.12}}
\@writefile{toc}{\contentsline {paragraph}{}{7}{section*.13}}
\@writefile{toc}{\contentsline {paragraph}{}{8}{section*.14}}
\@writefile{toc}{\contentsline {paragraph}{}{8}{section*.15}}
\@writefile{lof}{\contentsline {figure}{\numberline {5}{\ignorespaces Melbourne's Cube}}{9}{figure.0.5}}
\@writefile{toc}{\contentsline {paragraph}{Finding A, B, C, and D}{10}{section*.18}}
\@writefile{toc}{\contentsline {paragraph}{Finding A', B', C', and D'}{12}{section*.19}}
\@writefile{toc}{\contentsline {paragraph}{Finding the length of \textbf  {AA'}, \textbf  {BB'}, \textbf  {CC'}, and \textbf  {DD'}}{15}{section*.20}}
\@writefile{toc}{\contentsline {paragraph}{Finding the length of side of the cube}{16}{section*.21}}
\@writefile{toc}{\contentsline {paragraph}{Area of A'B'C'D'}{16}{section*.22}}
\@writefile{toc}{\contentsline {paragraph}{Volume of Melbourne's Cube}{17}{section*.23}}
\@writefile{toc}{\contentsline {paragraph}{In Conclusion:}{17}{section*.24}}
\@writefile{lof}{\contentsline {figure}{\numberline {6}{\ignorespaces Cube hovering in space}}{18}{figure.0.6}}
\@writefile{lof}{\contentsline {figure}{\numberline {7}{\ignorespaces Possible Hexagonal projection of cube onto \textit  {xy-pane}}}{19}{figure.0.7}}
