\relax 
\providecommand\hyper@newdestlabel[2]{}
\providecommand\HyperFirstAtBeginDocument{\AtBeginDocument}
\HyperFirstAtBeginDocument{\ifx\hyper@anchor\@undefined
\global\let\oldcontentsline\contentsline
\gdef\contentsline#1#2#3#4{\oldcontentsline{#1}{#2}{#3}}
\global\let\oldnewlabel\newlabel
\gdef\newlabel#1#2{\newlabelxx{#1}#2}
\gdef\newlabelxx#1#2#3#4#5#6{\oldnewlabel{#1}{{#2}{#3}}}
\AtEndDocument{\ifx\hyper@anchor\@undefined
\let\contentsline\oldcontentsline
\let\newlabel\oldnewlabel
\fi}
\fi}
\global\let\hyper@last\relax 
\gdef\HyperFirstAtBeginDocument#1{#1}
\providecommand\HyField@AuxAddToFields[1]{}
\providecommand\HyField@AuxAddToCoFields[2]{}
\@writefile{lof}{\contentsline {figure}{\numberline {1}{\ignorespaces Graph G}}{1}{figure.0.1}}
\newlabel{fig:Graph G}{{1}{1}{Graph G}{figure.0.1}{}}
\@writefile{lof}{\contentsline {figure}{\numberline {2}{\ignorespaces adjacency table of graph G}}{2}{figure.0.2}}
\@writefile{lof}{\contentsline {figure}{\numberline {3}{\ignorespaces Circuits of Graph G}}{2}{figure.0.3}}
\newlabel{fig:Circuits}{{3}{2}{Circuits of Graph G}{figure.0.3}{}}
\@writefile{lof}{\contentsline {figure}{\numberline {4}{\ignorespaces Spanning Tree from Prim's Algorithm (read from left to right top to bottom)}}{3}{figure.0.4}}
\newlabel{fig:Prim's Algorithm}{{4}{3}{Spanning Tree from Prim's Algorithm (read from left to right top to bottom)}{figure.0.4}{}}
\@writefile{lof}{\contentsline {figure}{\numberline {5}{\ignorespaces Spanning Tree from Graph G}}{4}{figure.0.5}}
\newlabel{fig:Spanning Tree}{{5}{4}{Spanning Tree from Graph G}{figure.0.5}{}}
\@writefile{lof}{\contentsline {figure}{\numberline {6}{\ignorespaces Paths in Graph G}}{5}{figure.0.6}}
\newlabel{fig:Paths}{{6}{5}{Paths in Graph G}{figure.0.6}{}}
\@writefile{toc}{\contentsline {paragraph}{}{6}{section*.10}}
\@writefile{toc}{\contentsline {paragraph}{}{6}{section*.11}}
\@writefile{toc}{\contentsline {paragraph}{}{6}{section*.12}}
\@writefile{lof}{\contentsline {figure}{\numberline {7}{\ignorespaces Table of all possible combination}}{6}{figure.0.7}}
\@writefile{toc}{\contentsline {paragraph}{}{7}{section*.13}}
\@writefile{toc}{\contentsline {paragraph}{}{7}{section*.14}}
\@writefile{lof}{\contentsline {figure}{\numberline {8}{\ignorespaces Table with possible combinations that has a total number of coins that is prime}}{7}{figure.0.8}}
\@writefile{toc}{\contentsline {paragraph}{}{7}{section*.15}}
\@writefile{toc}{\contentsline {paragraph}{}{7}{section*.16}}
\@writefile{lof}{\contentsline {figure}{\numberline {9}{\ignorespaces Table with solution to possible combination in bank}}{7}{figure.0.9}}
\@writefile{toc}{\contentsline {paragraph}{}{7}{section*.17}}
\@writefile{toc}{\contentsline {paragraph}{}{7}{section*.18}}
