\relax 
\citation{cite1}
\citation{cite2}
\@writefile{toc}{\contentsline {section}{\numberline {1}Introduction}{1}}
\@writefile{toc}{\contentsline {section}{\numberline {2}Data Analysis}{1}}
\@writefile{toc}{\contentsline {subsection}{\numberline {2.1}Initial Analysis and Data Reliability}{1}}
\@writefile{lot}{\contentsline {table}{\numberline {1}{\ignorespaces Descriptive Statistics of Data by Investment Options}}{1}}
\@writefile{toc}{\contentsline {subsection}{\numberline {2.2}Data Distribution}{2}}
\@writefile{lof}{\contentsline {figure}{\numberline {1}{\ignorespaces Histograms of Data without extreme outliers (contains moderate outliers)}}{2}}
\@writefile{lot}{\contentsline {table}{\numberline {2}{\ignorespaces Relative Cumulative Frequency of each investment option(includes outliers)}}{3}}
\@writefile{toc}{\contentsline {subsection}{\numberline {2.3}Central Tendency and Consistency}{3}}
\citation{cite3}
\@writefile{lof}{\contentsline {figure}{\numberline {2}{\ignorespaces Box plot of Data without extreme outliers (contains moderate outliers)}}{4}}
\bibstyle{apacite}
\bibdata{bibliography}
\bibcite{cite3}{\citeauthoryear {McCluskey\ \BBA{} Lalkhen}{McCluskey\ \BBA{} Lalkhen}{{\APACyear {2007}}}}
\APACbibcite{cite3}{\citeauthoryear {McCluskey\ \BBA{} Lalkhen}{McCluskey\ \BBA{} Lalkhen}{{\APACyear {2007}}}}
\bibcite{cite2}{\citeauthoryear {{Pearson}}{{Pearson}}{{\APACyear {1895}}}}
\APACbibcite{cite2}{\citeauthoryear {{Pearson}}{{Pearson}}{{\APACyear {1895}}}}
\bibcite{cite1}{\citeauthoryear {Sarndal, Swensson,{}\ \BBA{} Wretman}{Sarndal\ \BOthers {.}}{{\APACyear {1992}}}}
\APACbibcite{cite1}{\citeauthoryear {Sarndal, Swensson,{}\ \BBA{} Wretman}{Sarndal\ \BOthers {.}}{{\APACyear {1992}}}}
\@writefile{toc}{\contentsline {section}{\numberline {3}Conclusion}{5}}
\@writefile{toc}{\contentsline {section}{References}{5}}
\@writefile{toc}{\contentsline {section}{\numberline {A}Appendix}{6}}
\@writefile{toc}{\contentsline {subsection}{\numberline {A.1}Full Histogram}{6}}
\@writefile{lof}{\contentsline {figure}{\numberline {3}{\ignorespaces Histograms of Data with extreme outliers}}{6}}
\@writefile{toc}{\contentsline {subsection}{\numberline {A.2}Full Box Plot}{6}}
\@writefile{lof}{\contentsline {figure}{\numberline {4}{\ignorespaces Box Plot of Data with extreme outliers}}{6}}
\@writefile{toc}{\contentsline {subsection}{\numberline {A.3}Stem and Leaf Plot}{7}}
\@writefile{lof}{\contentsline {figure}{\numberline {5}{\ignorespaces Stem and Leaf Plot of All Investment Options}}{7}}
