This is BibTeX, Version 0.99dThe top-level auxiliary file: FIT1006 Assignment 1 - Lee Loong Kuan.aux
The style file: apacite.bst
Database file #1: bibliography.bib
apacite.bst [2013/07/21 v6.03 APA bibliography style]
