\relax 
\providecommand\hyper@newdestlabel[2]{}
\providecommand\HyperFirstAtBeginDocument{\AtBeginDocument}
\HyperFirstAtBeginDocument{\ifx\hyper@anchor\@undefined
\global\let\oldcontentsline\contentsline
\gdef\contentsline#1#2#3#4{\oldcontentsline{#1}{#2}{#3}}
\global\let\oldnewlabel\newlabel
\gdef\newlabel#1#2{\newlabelxx{#1}#2}
\gdef\newlabelxx#1#2#3#4#5#6{\oldnewlabel{#1}{{#2}{#3}}}
\AtEndDocument{\ifx\hyper@anchor\@undefined
\let\contentsline\oldcontentsline
\let\newlabel\oldnewlabel
\fi}
\fi}
\global\let\hyper@last\relax 
\gdef\HyperFirstAtBeginDocument#1{#1}
\providecommand\HyField@AuxAddToFields[1]{}
\providecommand\HyField@AuxAddToCoFields[2]{}
\select@language{english}
\@writefile{toc}{\select@language{english}}
\@writefile{lof}{\select@language{english}}
\@writefile{lot}{\select@language{english}}
\@writefile{lof}{\contentsline {figure}{\numberline {1}{\ignorespaces Graph of Time against List Length for Sum Time Function}}{1}{figure.0.1}}
\@writefile{lof}{\contentsline {figure}{\numberline {2}{\ignorespaces Graph of Time Taken against List Length for Shaker Sort algorithm}}{2}{figure.0.2}}
\@writefile{lof}{\contentsline {figure}{\numberline {3}{\ignorespaces Graph of Average Time Taken against List Length for Shaker Sort algorithm}}{2}{figure.0.3}}
\@writefile{lof}{\contentsline {figure}{\numberline {4}{\ignorespaces Graph of Time Taken against List Length for the Normal Find Interval Algorithm}}{3}{figure.0.4}}
\@writefile{lof}{\contentsline {figure}{\numberline {5}{\ignorespaces Graph of Average Time Taken against List Length for the Normal Find Interval}}{3}{figure.0.5}}
\@writefile{lof}{\contentsline {figure}{\numberline {6}{\ignorespaces Time Taken against List Length for Quick Find Interval Algorithm}}{4}{figure.0.6}}
\@writefile{lof}{\contentsline {figure}{\numberline {7}{\ignorespaces Time Taken against List Length for Quick Find Interval Algorithm}}{4}{figure.0.7}}
\@writefile{lof}{\contentsline {figure}{\numberline {8}{\ignorespaces Time Taken against List Length for Quick Find Interval Algorithm}}{5}{figure.0.8}}
\@writefile{lof}{\contentsline {figure}{\numberline {9}{\ignorespaces Standard (blue) vs Quick (green) Find Interval Algorithm}}{6}{figure.0.9}}
\@writefile{lof}{\contentsline {figure}{\numberline {10}{\ignorespaces Average Time Taken against List Length for Quick Find Interval Algorithm}}{6}{figure.0.10}}
\@writefile{lof}{\contentsline {figure}{\numberline {11}{\ignorespaces Quick(blue) vs Compressed(green) Find Interval Algorithm}}{7}{figure.0.11}}
