\relax 
\providecommand\hyper@newdestlabel[2]{}
\@setckpt{./img/swanson_reduced.tex}{
\setcounter{page}{7}
\setcounter{equation}{0}
\setcounter{enumi}{3}
\setcounter{enumii}{0}
\setcounter{enumiii}{0}
\setcounter{enumiv}{0}
\setcounter{footnote}{0}
\setcounter{mpfootnote}{0}
\setcounter{part}{0}
\setcounter{chapter}{0}
\setcounter{section}{0}
\setcounter{subsection}{0}
\setcounter{subsubsection}{0}
\setcounter{paragraph}{0}
\setcounter{subparagraph}{0}
\setcounter{figure}{3}
\setcounter{table}{0}
\setcounter{parentequation}{0}
\setcounter{Item}{3}
\setcounter{Hfootnote}{0}
\setcounter{bookmark@seq@number}{0}
\setcounter{ProblemNum}{1}
\setcounter{SubProblemNum}{3}
\setcounter{section@level}{4}
}
